<?xml version="1.0" encoding="utf-8"?>
<!-- Generator: Adobe Illustrator 16.0.0, SVG Export Plug-In . SVG Version: 6.00 Build 0)  -->
<!DOCTYPE svg PUBLIC "-//W3C//DTD SVG 1.1//EN" "http://www.w3.org/Graphics/SVG/1.1/DTD/svg11.dtd">
<svg version="1.1" id="Layer_1" xmlns="http://www.w3.org/2000/svg" xmlns:xlink="http://www.w3.org/1999/xlink" x="0px" y="0px"
	 width="4px" height="7px" viewBox="0 0 4 7" enable-background="new 0 0 4 7" xml:space="preserve">
<g>
	<path fill="#5C4890" d="M0.5,7C0.372,7,0.244,6.951,0.146,6.854c-0.195-0.195-0.195-0.512,0-0.707L2.793,3.5L0.146,0.854
		c-0.195-0.195-0.195-0.512,0-0.707s0.512-0.195,0.707,0l3,3c0.195,0.195,0.195,0.512,0,0.707l-3,3C0.756,6.951,0.628,7,0.5,7z"/>
</g>
</svg>
