<?xml version="1.0" encoding="utf-8"?>
<!-- Generator: Adobe Illustrator 16.0.0, SVG Export Plug-In . SVG Version: 6.00 Build 0)  -->
<!DOCTYPE svg PUBLIC "-//W3C//DTD SVG 1.1//EN" "http://www.w3.org/Graphics/SVG/1.1/DTD/svg11.dtd">
<svg version="1.1" id="Layer_1" xmlns="http://www.w3.org/2000/svg" xmlns:xlink="http://www.w3.org/1999/xlink" x="0px" y="0px"
	 width="7px" height="4px" viewBox="0 0 7 4" enable-background="new 0 0 7 4" xml:space="preserve">
<g>
	<path fill="#A6A1B3" d="M3.5,4C3.372,4,3.244,3.951,3.146,3.854l-3-3c-0.195-0.195-0.195-0.512,0-0.707s0.512-0.195,0.707,0
		L3.5,2.793l2.646-2.646c0.195-0.195,0.512-0.195,0.707,0s0.195,0.512,0,0.707l-3,3C3.756,3.951,3.628,4,3.5,4z"/>
</g>
</svg>
