<?xml version="1.0" encoding="utf-8"?>
<!-- Generator: Adobe Illustrator 19.2.1, SVG Export Plug-In . SVG Version: 6.00 Build 0)  -->
<svg version="1.1" id="Layer_1" xmlns="http://www.w3.org/2000/svg" xmlns:xlink="http://www.w3.org/1999/xlink" x="0px" y="0px"
	 viewBox="0 0 487.5 487.5" style="enable-background:new 0 0 487.5 487.5;" xml:space="preserve">
<style type="text/css">
	.st0{fill-rule:evenodd;clip-rule:evenodd;fill:#070808;}
	.st1{fill:#070808;}
</style>
<g>
	<g>
		<rect x="109.1" y="111.3" class="st0" width="82.4" height="82.4"/>
		<path class="st1" d="M191.5,210.2h-82.4c-9.1,0-16.5-7.4-16.5-16.5v-82.4c0-9.1,7.4-16.5,16.5-16.5h82.4c9.1,0,16.5,7.4,16.5,16.5
			v82.4C208,202.8,200.7,210.2,191.5,210.2z M125.6,177.2h49.5v-49.5h-49.5V177.2z"/>
	</g>
	<g>
		<rect x="290.5" y="111.3" class="st0" width="82.4" height="82.4"/>
		<path class="st1" d="M372.9,210.2h-82.4c-9.1,0-16.5-7.4-16.5-16.5v-82.4c0-9.1,7.4-16.5,16.5-16.5h82.4c9.1,0,16.5,7.4,16.5,16.5
			v82.4C389.4,202.8,382,210.2,372.9,210.2z M306.9,177.2h49.5v-49.5h-49.5V177.2z"/>
	</g>
	<g>
		<rect x="109.1" y="292.6" class="st0" width="82.4" height="82.4"/>
		<path class="st1" d="M191.5,391.5h-82.4c-9.1,0-16.5-7.4-16.5-16.5v-82.4c0-9.1,7.4-16.5,16.5-16.5h82.4c9.1,0,16.5,7.4,16.5,16.5
			v82.4C208,384.2,200.7,391.5,191.5,391.5z M125.6,358.6h49.5v-49.5h-49.5V358.6z"/>
	</g>
	<g>
		<rect x="290.5" y="292.6" class="st0" width="82.4" height="82.4"/>
		<path class="st1" d="M372.9,391.5h-82.4c-9.1,0-16.5-7.4-16.5-16.5v-82.4c0-9.1,7.4-16.5,16.5-16.5h82.4c9.1,0,16.5,7.4,16.5,16.5
			v82.4C389.4,384.2,382,391.5,372.9,391.5z M306.9,358.6h49.5v-49.5h-49.5V358.6z"/>
	</g>
</g>
</svg>
