<?xml version="1.0" encoding="utf-8"?>
<!-- Generator: Adobe Illustrator 16.0.0, SVG Export Plug-In . SVG Version: 6.00 Build 0)  -->
<!DOCTYPE svg PUBLIC "-//W3C//DTD SVG 1.1//EN" "http://www.w3.org/Graphics/SVG/1.1/DTD/svg11.dtd">
<svg version="1.1" id="Layer_1" xmlns="http://www.w3.org/2000/svg" xmlns:xlink="http://www.w3.org/1999/xlink" x="0px" y="0px"
	 width="4.781px" height="5.109px" viewBox="0 0 4.781 5.109" enable-background="new 0 0 4.781 5.109" xml:space="preserve">
<g>
	<g>
		<path fill="#A6A1B3" d="M1.594,2.48c0-0.227,0.072-0.413,0.217-0.559s0.336-0.219,0.576-0.219c0.237,0,0.43,0.071,0.578,0.213
			S3.188,2.25,3.188,2.492v0.145c0,0.227-0.072,0.411-0.215,0.555S2.635,3.406,2.391,3.406c-0.242,0-0.436-0.072-0.58-0.217
			S1.594,2.858,1.594,2.629V2.48z"/>
	</g>
</g>
</svg>
