<?xml version="1.0" encoding="utf-8"?>
<!-- Generator: Adobe Illustrator 16.0.0, SVG Export Plug-In . SVG Version: 6.00 Build 0)  -->
<!DOCTYPE svg PUBLIC "-//W3C//DTD SVG 1.1//EN" "http://www.w3.org/Graphics/SVG/1.1/DTD/svg11.dtd">
<svg version="1.1" id="Layer_1" xmlns="http://www.w3.org/2000/svg" xmlns:xlink="http://www.w3.org/1999/xlink" x="0px" y="0px"
	 width="10.589px" height="12px" viewBox="0 0 10.589 12" enable-background="new 0 0 10.589 12" xml:space="preserve">
<path fill="#A6A1B3" d="M5.533,1l0.122,0.608l0.161,0.804h0.819h2.953V7.47H6.468L6.346,6.863l-0.16-0.804h-0.82H1.412H1V1H5.533z
	 M6.354,0H0v12h1.412V7.059h3.953L5.647,8.47h4.941V1.412H6.636L6.354,0z"/>
</svg>
