<?xml version="1.0" encoding="utf-8"?>
<!-- Generator: Adobe Illustrator 16.0.0, SVG Export Plug-In . SVG Version: 6.00 Build 0)  -->
<!DOCTYPE svg PUBLIC "-//W3C//DTD SVG 1.1//EN" "http://www.w3.org/Graphics/SVG/1.1/DTD/svg11.dtd">
<svg version="1.1" id="Layer_1" xmlns="http://www.w3.org/2000/svg" xmlns:xlink="http://www.w3.org/1999/xlink" x="0px" y="0px"
	 width="14.646px" height="14px" viewBox="0 0 14.646 14" enable-background="new 0 0 14.646 14" xml:space="preserve">
<path fill-rule="evenodd" clip-rule="evenodd" fill="#5C4890" d="M3.324,4.554H0.186V14h3.138V4.554z M1.755,3.264
	c1.095,0,1.776-0.725,1.776-1.632C3.511,0.705,2.85,0,1.776,0C0.702,0,0,0.705,0,1.632c0,0.907,0.681,1.632,1.734,1.632H1.755z"/>
<path fill-rule="evenodd" clip-rule="evenodd" fill="#5C4890" d="M5.063,13.999h3.141V8.725c0-0.282,0.019-0.565,0.104-0.767
	c0.225-0.563,0.742-1.147,1.609-1.147c1.137,0,1.59,0.866,1.59,2.136v5.053h3.141V8.583c0-2.901-1.55-4.251-3.615-4.251
	c-1.693,0-2.438,0.946-2.85,1.592h0.021v-1.37H5.063C5.104,5.439,5.063,13.999,5.063,13.999"/>
</svg>
