<?xml version="1.0" encoding="utf-8"?>
<!-- Generator: Adobe Illustrator 19.2.1, SVG Export Plug-In . SVG Version: 6.00 Build 0)  -->
<svg version="1.1" id="Layer_1" xmlns="http://www.w3.org/2000/svg" xmlns:xlink="http://www.w3.org/1999/xlink" x="0px" y="0px"
	 viewBox="0 0 487.5 487.5" style="enable-background:new 0 0 487.5 487.5;" xml:space="preserve">
<style type="text/css">
	.st0{fill:#070808;}
</style>
<g>
	<g>
		<path class="st0" d="M245,395.8c-10.6,0-19.2-8.6-19.2-19.2V113.4c0-10.6,8.6-19.2,19.2-19.2s19.2,8.6,19.2,19.2v263.2
			C264.2,387.2,255.6,395.8,245,395.8z"/>
	</g>
	<g>
		<path class="st0" d="M376.6,264.2H113.4c-10.6,0-19.2-8.6-19.2-19.2s8.6-19.2,19.2-19.2h263.2c10.6,0,19.2,8.6,19.2,19.2
			S387.2,264.2,376.6,264.2z"/>
	</g>
</g>
</svg>
