<?xml version="1.0" encoding="utf-8"?>
<!-- Generator: Adobe Illustrator 19.2.1, SVG Export Plug-In . SVG Version: 6.00 Build 0)  -->
<svg version="1.1" id="Layer_1" xmlns="http://www.w3.org/2000/svg" xmlns:xlink="http://www.w3.org/1999/xlink" x="0px" y="0px"
	 viewBox="0 0 487.5 487.5" style="enable-background:new 0 0 487.5 487.5;" xml:space="preserve">
<style type="text/css">
	.st0{fill:#101010;}
</style>
<g>
	<g>
		<path class="st0" d="M244.1,100.5c79.7,0,144.5,64.8,144.5,144.5s-64.8,144.5-144.5,144.5S99.6,324.7,99.6,245
			S164.5,100.5,244.1,100.5 M244.1,64.4c-99.8,0-180.6,80.9-180.6,180.6s80.9,180.6,180.6,180.6S424.8,344.8,424.8,245
			S343.9,64.4,244.1,64.4L244.1,64.4z"/>
	</g>
	<g>
		<path class="st0" d="M228.5,289.8l-0.5-6.6c-1.5-13.7,3-28.6,15.7-43.8c11.4-13.4,17.7-23.3,17.7-34.6c0-12.9-8.1-21.5-24-21.8
			c-9.1,0-19.2,3-25.6,7.8l-6.1-15.9c8.3-6.1,22.8-10.1,36.2-10.1c29.1,0,42.3,18,42.3,37.2c0,17.2-9.6,29.6-21.8,44
			c-11.1,13.2-15.2,24.3-14.4,37.2l0.2,6.6H228.5z M222.9,325.3c0-9.3,6.3-15.9,15.2-15.9c8.9,0,14.9,6.6,14.9,15.9
			c0,8.9-5.8,15.7-15.2,15.7C229,341,222.9,334.1,222.9,325.3z"/>
	</g>
</g>
</svg>
