<?xml version="1.0" encoding="utf-8"?>
<!-- Generator: Adobe Illustrator 16.0.0, SVG Export Plug-In . SVG Version: 6.00 Build 0)  -->
<!DOCTYPE svg PUBLIC "-//W3C//DTD SVG 1.1//EN" "http://www.w3.org/Graphics/SVG/1.1/DTD/svg11.dtd">
<svg version="1.1" id="Layer_1" xmlns="http://www.w3.org/2000/svg" xmlns:xlink="http://www.w3.org/1999/xlink" x="0px" y="0px"
	 width="15.504px" height="12.6px" viewBox="0 0 15.504 12.6" enable-background="new 0 0 15.504 12.6" xml:space="preserve">
<path fill="#5C4890" d="M15.504,1.49c-0.57,0.254-1.184,0.425-1.827,0.501c0.657-0.394,1.161-1.017,1.399-1.76
	c-0.615,0.365-1.297,0.629-2.021,0.772C12.477,0.386,11.648,0,10.734,0C8.977,0,7.553,1.424,7.553,3.18
	c0,0.25,0.028,0.492,0.083,0.725C4.992,3.772,2.648,2.506,1.079,0.582c-0.273,0.47-0.43,1.016-0.43,1.599
	c0,1.103,0.561,2.077,1.415,2.647C1.542,4.812,1.052,4.669,0.623,4.431c0,0.013,0,0.026,0,0.04c0,1.541,1.096,2.826,2.551,3.119
	C2.907,7.662,2.626,7.7,2.336,7.7c-0.205,0-0.404-0.02-0.598-0.057c0.404,1.264,1.579,2.184,2.971,2.209
	c-1.088,0.854-2.46,1.362-3.95,1.362c-0.257,0-0.51-0.016-0.759-0.045c1.408,0.902,3.079,1.43,4.876,1.43
	c5.851,0,9.05-4.847,9.05-9.051c0-0.138-0.003-0.275-0.009-0.412C14.538,2.688,15.078,2.129,15.504,1.49"/>
</svg>
