<?xml version="1.0" encoding="utf-8"?>
<!-- Generator: Adobe Illustrator 16.0.0, SVG Export Plug-In . SVG Version: 6.00 Build 0)  -->
<!DOCTYPE svg PUBLIC "-//W3C//DTD SVG 1.1//EN" "http://www.w3.org/Graphics/SVG/1.1/DTD/svg11.dtd">
<svg version="1.1" id="Layer_1" xmlns="http://www.w3.org/2000/svg" xmlns:xlink="http://www.w3.org/1999/xlink" x="0px" y="0px"
	 width="114.724px" height="14.13px" viewBox="0 0 114.724 14.13" enable-background="new 0 0 114.724 14.13" xml:space="preserve">
<g>
	<path fill="#5C4890" d="M2.665,3.081H0V2.119h6.487v0.962H3.809v7.8H2.665V3.081z"/>
	<path fill="#5C4890" d="M12.856,2.235c0.572-0.117,1.391-0.182,2.171-0.182c1.209,0,1.989,0.221,2.535,0.715
		c0.442,0.39,0.689,0.988,0.689,1.664c0,1.157-0.728,1.924-1.651,2.236v0.039c0.676,0.234,1.079,0.858,1.287,1.769
		c0.286,1.222,0.494,2.066,0.676,2.404h-1.17c-0.143-0.246-0.338-1-0.585-2.093c-0.26-1.209-0.728-1.664-1.755-1.703h-1.066v3.796
		h-1.131V2.235z M13.988,6.227h1.157c1.209,0,1.977-0.663,1.977-1.664c0-1.131-0.819-1.625-2.015-1.638
		c-0.546,0-0.936,0.052-1.118,0.104V6.227z"/>
	<path fill="#5C4890" d="M26.884,8.125l-0.91,2.756h-1.17l2.977-8.762h1.365l2.99,8.762h-1.209l-0.936-2.756H26.884z M29.757,7.241
		l-0.858-2.522c-0.195-0.572-0.325-1.092-0.455-1.599h-0.026c-0.13,0.52-0.273,1.053-0.442,1.586l-0.858,2.535H29.757z"/>
	<path fill="#5C4890" d="M38.844,2.235c0.689-0.104,1.508-0.182,2.405-0.182c1.625,0,2.782,0.377,3.549,1.092
		c0.78,0.715,1.235,1.729,1.235,3.146c0,1.43-0.442,2.601-1.261,3.406c-0.819,0.819-2.171,1.261-3.874,1.261
		c-0.806,0-1.482-0.039-2.054-0.104V2.235z M39.975,9.984c0.286,0.052,0.702,0.064,1.144,0.064c2.418,0,3.731-1.352,3.731-3.718
		c0.013-2.067-1.157-3.38-3.549-3.38c-0.585,0-1.027,0.052-1.326,0.117V9.984z"/>
	<path fill="#5C4890" d="M57.226,6.773h-3.406v3.158h3.796v0.949h-4.927V2.119h4.732v0.949h-3.601v2.769h3.406V6.773z"/>
	<path fill="#5C4890" d="M64.231,10.88v-0.701l0.897-0.871c2.158-2.054,3.134-3.146,3.146-4.42c0-0.858-0.416-1.651-1.677-1.651
		c-0.768,0-1.404,0.39-1.795,0.715L64.44,3.146c0.584-0.494,1.416-0.858,2.392-0.858c1.82,0,2.587,1.248,2.587,2.457
		c0,1.56-1.131,2.821-2.912,4.537l-0.676,0.624v0.025h3.796v0.949H64.231z"/>
	<path fill="#5C4890" d="M76.595,2.119h1.131v7.813h3.744v0.949h-4.875V2.119z"/>
	<path fill="#5C4890" d="M89.244,2.119v8.762h-1.131V2.119H89.244z"/>
	<path fill="#5C4890" d="M98.565,10.88l-2.86-8.762h1.222l1.365,4.316c0.377,1.183,0.702,2.249,0.936,3.276h0.026
		c0.247-1.014,0.611-2.119,1.001-3.263l1.482-4.329h1.209l-3.133,8.762H98.565z"/>
	<path fill="#5C4890" d="M113.853,6.773h-3.406v3.158h3.797v0.949h-4.928V2.119h4.732v0.949h-3.602v2.769h3.406V6.773z"/>
</g>
<g>
</g>
<g>
</g>
<g>
</g>
<g>
</g>
<g>
</g>
<g>
</g>
</svg>
